<?xml version="1.0" encoding="utf-8"?>
<!-- Generator: Adobe Illustrator 19.1.0, SVG Export Plug-In . SVG Version: 6.00 Build 0)  -->
<svg version="1.1" xmlns="http://www.w3.org/2000/svg" xmlns:xlink="http://www.w3.org/1999/xlink" x="0px" y="0px"
	 viewBox="0 0 299.3 772.8" style="enable-background:new 0 0 299.3 772.8;" xml:space="preserve">
<style type="text/css">
	.st0{enable-background:new    ;}
	.st1{fill:#8BFFD5;}
	.st2{fill:#42C8AB;}
	.st3{fill:#339197;}
	.st4{fill:#00757D;}
	.st5{fill:#69C4B9;}
	.st6{fill:#37EDCE;}
	.st7{fill:#6BD6C7;}
	.st8{fill:#66E2D0;}
</style>
<g id="Shape_3_1_" class="st0">
</g>
<g id="Shape_3_copy_1_" class="st0">
</g>
<g id="Shape_4_1_" class="st0">
	<path class="st1" d="M268.1,126.7c0.3-3.3,0.4-6.7,0.4-10.2C268.6,52.2,216.4,0,152,0S35.5,52.2,35.5,116.6c0,3.4,0.2,6.8,0.4,10.2
		H12.5v178.2h273.4V126.7H268.1z"/>
	<g id="Shape_3_copy_3_">
		<g>
			<circle class="st2" cx="152.1" cy="116.9" r="98.8"/>
		</g>
	</g>
</g>
<g id="Shape_1_1_" class="st0">
</g>
<g id="Shape_2_1_" class="st0">
	<polygon class="st3" points="272.4,304.3 272.4,146.9 25.9,146.9 25.9,304.3 0,304.3 0,772.8 299.3,772.8 299.3,304.3 	"/>
</g>
<g id="Shape_5_1_" class="st0">
	<g id="Shape_5">
		<g>
			<rect x="3.3" y="126.5" class="st4" width="291.6" height="21.1"/>
		</g>
	</g>
</g>
<g id="Shape_6_copy_7_xA0_Image_1_">
</g>
<g id="Shape_6_copy_19_xA0_Image_1_">
</g>
<g id="Shape_6_copy_8_xA0_Image_1_">
</g>
<g id="Shape_6_copy_12_xA0_Image_1_">
	<g>
		<rect x="249.5" y="720.1" class="st5" width="13.9" height="25.9"/>
	</g>
	<g>
		<rect x="225.9" y="720.1" class="st5" width="13.9" height="25.9"/>
	</g>
	<g>
		<rect x="202.3" y="720.1" class="st5" width="13.9" height="25.9"/>
	</g>
	<g>
		<rect x="178.7" y="720.1" class="st5" width="13.9" height="25.9"/>
	</g>
	<g>
		<rect x="155.1" y="720.1" class="st5" width="13.9" height="25.9"/>
	</g>
	<g>
		<rect x="131.5" y="720.1" class="st5" width="13.9" height="25.9"/>
	</g>
	<g>
		<rect x="107.9" y="720.1" class="st5" width="13.9" height="25.9"/>
	</g>
	<g>
		<rect x="84.3" y="720.1" class="st5" width="13.9" height="25.9"/>
	</g>
	<g>
		<rect x="60.7" y="720.1" class="st5" width="13.9" height="25.9"/>
	</g>
	<g>
		<rect x="37.1" y="720.1" class="st5" width="13.9" height="25.9"/>
	</g>
	<g>
		<rect x="249.5" y="685.1" class="st6" width="13.9" height="25.9"/>
	</g>
	<g>
		<rect x="225.9" y="685.1" class="st5" width="13.9" height="25.9"/>
	</g>
	<g>
		<rect x="202.3" y="685.1" class="st5" width="13.9" height="25.9"/>
	</g>
	<g>
		<rect x="178.7" y="685.1" class="st5" width="13.9" height="25.9"/>
	</g>
	<g>
		<rect x="155.1" y="685.1" class="st5" width="13.9" height="25.9"/>
	</g>
	<g>
		<rect x="131.5" y="685.1" class="st6" width="13.9" height="25.9"/>
	</g>
	<g>
		<rect x="107.9" y="685.1" class="st5" width="13.9" height="25.9"/>
	</g>
	<g>
		<rect x="84.3" y="685.1" class="st5" width="13.9" height="25.9"/>
	</g>
	<g>
		<rect x="60.7" y="685.1" class="st5" width="13.9" height="25.9"/>
	</g>
	<g>
		<rect x="37.1" y="685.1" class="st6" width="13.9" height="25.9"/>
	</g>
	<g>
		<rect x="249.5" y="650.1" class="st5" width="13.9" height="25.9"/>
	</g>
	<g>
		<rect x="225.9" y="650.1" class="st5" width="13.9" height="25.9"/>
	</g>
	<g>
		<rect x="202.3" y="650.1" class="st5" width="13.9" height="25.9"/>
	</g>
	<g>
		<rect x="178.7" y="650.1" class="st5" width="13.9" height="25.9"/>
	</g>
	<g>
		<rect x="155.1" y="650.1" class="st5" width="13.9" height="25.9"/>
	</g>
	<g>
		<rect x="131.5" y="650.1" class="st5" width="13.9" height="25.9"/>
	</g>
	<g>
		<rect x="107.9" y="650.1" class="st5" width="13.9" height="25.9"/>
	</g>
	<g>
		<rect x="84.3" y="650.1" class="st6" width="13.9" height="25.9"/>
	</g>
	<g>
		<rect x="60.7" y="650.1" class="st5" width="13.9" height="25.9"/>
	</g>
	<g>
		<rect x="37.1" y="650.1" class="st5" width="13.9" height="25.9"/>
	</g>
	<g>
		<rect x="249.5" y="615.1" class="st5" width="13.9" height="25.9"/>
	</g>
	<g>
		<rect x="225.9" y="615.1" class="st5" width="13.9" height="25.9"/>
	</g>
	<g>
		<rect x="202.3" y="615.1" class="st5" width="13.9" height="25.9"/>
	</g>
	<g>
		<rect x="178.7" y="615.1" class="st5" width="13.9" height="25.9"/>
	</g>
	<g>
		<rect x="155.1" y="615.1" class="st6" width="13.9" height="25.9"/>
	</g>
	<g>
		<rect x="131.5" y="615.1" class="st5" width="13.9" height="25.9"/>
	</g>
	<g>
		<rect x="107.9" y="615.1" class="st5" width="13.9" height="25.9"/>
	</g>
	<g>
		<rect x="84.3" y="615.1" class="st5" width="13.9" height="25.9"/>
	</g>
	<g>
		<rect x="60.7" y="615.1" class="st5" width="13.9" height="25.9"/>
	</g>
	<g>
		<rect x="37.1" y="615.1" class="st5" width="13.9" height="25.9"/>
	</g>
	<g>
		<rect x="249.5" y="580.1" class="st5" width="13.9" height="25.9"/>
	</g>
	<g>
		<rect x="225.9" y="580.1" class="st5" width="13.9" height="25.9"/>
	</g>
	<g>
		<rect x="202.3" y="580.1" class="st5" width="13.9" height="25.9"/>
	</g>
	<g>
		<rect x="178.7" y="580.1" class="st5" width="13.9" height="25.9"/>
	</g>
	<g>
		<rect x="155.1" y="580.1" class="st5" width="13.9" height="25.9"/>
	</g>
	<g>
		<rect x="131.5" y="580.1" class="st5" width="13.9" height="25.9"/>
	</g>
	<g>
		<rect x="107.9" y="580.1" class="st5" width="13.9" height="25.9"/>
	</g>
	<g>
		<rect x="84.3" y="580.1" class="st5" width="13.9" height="25.9"/>
	</g>
	<g>
		<rect x="60.7" y="580.1" class="st5" width="13.9" height="25.9"/>
	</g>
	<g>
		<rect x="37.1" y="580.1" class="st5" width="13.9" height="25.9"/>
	</g>
	<g>
		<rect x="249.5" y="545.1" class="st5" width="13.9" height="25.9"/>
	</g>
	<g>
		<rect x="225.9" y="545.1" class="st5" width="13.9" height="25.9"/>
	</g>
	<g>
		<rect x="202.3" y="545.1" class="st6" width="13.9" height="25.9"/>
	</g>
	<g>
		<rect x="178.7" y="545.1" class="st5" width="13.9" height="25.9"/>
	</g>
	<g>
		<rect x="155.1" y="545.1" class="st5" width="13.9" height="25.9"/>
	</g>
	<g>
		<rect x="131.5" y="545.1" class="st5" width="13.9" height="25.9"/>
	</g>
	<g>
		<rect x="107.9" y="545.1" class="st5" width="13.9" height="25.9"/>
	</g>
	<g>
		<rect x="84.3" y="545.1" class="st6" width="13.9" height="25.9"/>
	</g>
	<g>
		<rect x="60.7" y="545.1" class="st5" width="13.9" height="25.9"/>
	</g>
	<g>
		<rect x="37.1" y="545.1" class="st5" width="13.9" height="25.9"/>
	</g>
	<g>
		<rect x="249.5" y="510.1" class="st5" width="13.9" height="25.9"/>
	</g>
	<g>
		<rect x="225.9" y="510.1" class="st5" width="13.9" height="25.9"/>
	</g>
	<g>
		<rect x="202.3" y="510.1" class="st5" width="13.9" height="25.9"/>
	</g>
	<g>
		<rect x="178.7" y="510.1" class="st5" width="13.9" height="25.9"/>
	</g>
	<g>
		<rect x="155.1" y="510.1" class="st5" width="13.9" height="25.9"/>
	</g>
	<g>
		<rect x="131.5" y="510.1" class="st5" width="13.9" height="25.9"/>
	</g>
	<g>
		<rect x="107.9" y="510.1" class="st5" width="13.9" height="25.9"/>
	</g>
	<g>
		<rect x="84.3" y="510.1" class="st5" width="13.9" height="25.9"/>
	</g>
	<g>
		<rect x="60.7" y="510.1" class="st5" width="13.9" height="25.9"/>
	</g>
	<g>
		<rect x="37.1" y="510.1" class="st5" width="13.9" height="25.9"/>
	</g>
	<g>
		<rect x="249.5" y="475.1" class="st5" width="13.9" height="25.9"/>
	</g>
	<g>
		<rect x="225.9" y="475.1" class="st5" width="13.9" height="25.9"/>
	</g>
	<g>
		<rect x="202.3" y="475.1" class="st5" width="13.9" height="25.9"/>
	</g>
	<g>
		<rect x="178.7" y="475.1" class="st5" width="13.9" height="25.9"/>
	</g>
	<g>
		<rect x="155.1" y="475.1" class="st5" width="13.9" height="25.9"/>
	</g>
	<g>
		<rect x="131.5" y="475.1" class="st5" width="13.9" height="25.9"/>
	</g>
	<g>
		<rect x="107.9" y="475.1" class="st6" width="13.9" height="25.9"/>
	</g>
	<g>
		<rect x="84.3" y="475.1" class="st5" width="13.9" height="25.9"/>
	</g>
	<g>
		<rect x="60.7" y="475.1" class="st5" width="13.9" height="25.9"/>
	</g>
	<g>
		<rect x="37.1" y="475.1" class="st5" width="13.9" height="25.9"/>
	</g>
	<rect x="249.5" y="440.1" class="st5" width="13.9" height="25.9"/>
	<rect x="225.9" y="440.1" class="st5" width="13.9" height="25.9"/>
	<rect x="202.3" y="440.1" class="st5" width="13.9" height="25.9"/>
	<rect x="178.7" y="440.1" class="st5" width="13.9" height="25.9"/>
	<rect x="155.1" y="440.1" class="st5" width="13.9" height="25.9"/>
	<rect x="131.5" y="440.1" class="st5" width="13.9" height="25.9"/>
	<rect x="107.9" y="440.1" class="st5" width="13.9" height="25.9"/>
	<rect x="84.3" y="440.1" class="st5" width="13.9" height="25.9"/>
	<rect x="60.7" y="440.1" class="st5" width="13.9" height="25.9"/>
	<rect x="37.1" y="440.1" class="st6" width="13.9" height="25.9"/>
	<rect x="249.5" y="405.1" class="st5" width="13.9" height="25.9"/>
	<rect x="225.9" y="405.1" class="st5" width="13.9" height="25.9"/>
	<rect x="202.3" y="405.1" class="st5" width="13.9" height="25.9"/>
	<rect x="178.7" y="405.1" class="st7" width="13.9" height="25.9"/>
	<rect x="155.1" y="405.1" class="st5" width="13.9" height="25.9"/>
	<rect x="131.5" y="405.1" class="st5" width="13.9" height="25.9"/>
	<rect x="107.9" y="405.1" class="st5" width="13.9" height="25.9"/>
	<rect x="84.3" y="405.1" class="st8" width="13.9" height="25.9"/>
	<rect x="60.7" y="405.1" class="st5" width="13.9" height="25.9"/>
	<rect x="37.1" y="405.1" class="st5" width="13.9" height="25.9"/>
	<rect x="249.5" y="370.1" class="st6" width="13.9" height="25.9"/>
	<rect x="225.9" y="370.1" class="st5" width="13.9" height="25.9"/>
	<rect x="202.3" y="370.1" class="st5" width="13.9" height="25.9"/>
	<rect x="178.7" y="370.1" class="st5" width="13.9" height="25.9"/>
	<rect x="155.1" y="370.1" class="st6" width="13.9" height="25.9"/>
	<rect x="131.5" y="370.1" class="st5" width="13.9" height="25.9"/>
	<rect x="107.9" y="370.1" class="st5" width="13.9" height="25.9"/>
	<rect x="84.3" y="370.1" class="st7" width="13.9" height="25.9"/>
	<rect x="60.7" y="370.1" class="st5" width="13.9" height="25.9"/>
	<rect x="37.1" y="370.1" class="st5" width="13.9" height="25.9"/>
	<rect x="249.5" y="335.1" class="st5" width="13.9" height="25.9"/>
	<g>
		<rect x="272.5" y="720.1" class="st5" width="13.9" height="25.9"/>
	</g>
	<g>
		<rect x="272.5" y="685.1" class="st5" width="13.9" height="25.9"/>
	</g>
	<g>
		<rect x="272.5" y="650.1" class="st5" width="13.9" height="25.9"/>
	</g>
	<g>
		<rect x="272.5" y="615.1" class="st5" width="13.9" height="25.9"/>
	</g>
	<g>
		<rect x="272.5" y="580.1" class="st5" width="13.9" height="25.9"/>
	</g>
	<g>
		<rect x="272.5" y="545.1" class="st5" width="13.9" height="25.9"/>
	</g>
	<g>
		<rect x="272.5" y="510.1" class="st5" width="13.9" height="25.9"/>
	</g>
	<g>
		<rect x="272.5" y="475.1" class="st5" width="13.9" height="25.9"/>
	</g>
	<rect x="272.5" y="440.1" class="st5" width="13.9" height="25.9"/>
	<rect x="272.5" y="405.1" class="st5" width="13.9" height="25.9"/>
	<rect x="272.5" y="370.1" class="st5" width="13.9" height="25.9"/>
	<rect x="272.5" y="335.1" class="st5" width="13.9" height="25.9"/>
	<rect x="225.9" y="335.1" class="st5" width="13.9" height="25.9"/>
	<rect x="202.3" y="335.1" class="st5" width="13.9" height="25.9"/>
	<rect x="178.7" y="335.1" class="st5" width="13.9" height="25.9"/>
	<rect x="155.1" y="335.1" class="st5" width="13.9" height="25.9"/>
	<rect x="131.5" y="335.1" class="st5" width="13.9" height="25.9"/>
	<rect x="107.9" y="335.1" class="st5" width="13.9" height="25.9"/>
	<rect x="84.3" y="335.1" class="st5" width="13.9" height="25.9"/>
	<rect x="60.7" y="335.1" class="st5" width="13.9" height="25.9"/>
	<rect x="37.1" y="335.1" class="st5" width="13.9" height="25.9"/>
	<g>
		<rect x="16.1" y="720.1" class="st5" width="13.9" height="25.9"/>
	</g>
	<g>
		<rect x="16.1" y="685.1" class="st5" width="13.9" height="25.9"/>
	</g>
	<g>
		<rect x="16.1" y="650.1" class="st5" width="13.9" height="25.9"/>
	</g>
	<g>
		<rect x="16.1" y="615.1" class="st5" width="13.9" height="25.9"/>
	</g>
	<g>
		<rect x="16.1" y="580.1" class="st5" width="13.9" height="25.9"/>
	</g>
	<g>
		<rect x="16.1" y="545.1" class="st5" width="13.9" height="25.9"/>
	</g>
	<g>
		<rect x="16.1" y="510.1" class="st5" width="13.9" height="25.9"/>
	</g>
	<g>
		<rect x="16.1" y="475.1" class="st5" width="13.9" height="25.9"/>
	</g>
	<rect x="16.1" y="440.1" class="st5" width="13.9" height="25.9"/>
	<rect x="16.1" y="405.1" class="st5" width="13.9" height="25.9"/>
	<rect x="16.1" y="370.1" class="st5" width="13.9" height="25.9"/>
	<rect x="16.1" y="335.1" class="st5" width="13.9" height="25.9"/>
	<g>
		<rect x="249.5" y="300.1" class="st5" width="13.9" height="25.9"/>
	</g>
	<g>
		<rect x="225.9" y="300.1" class="st5" width="13.9" height="25.9"/>
	</g>
	<g>
		<rect x="202.3" y="300.1" class="st6" width="13.9" height="25.9"/>
	</g>
	<g>
		<rect x="178.7" y="300.1" class="st5" width="13.9" height="25.9"/>
	</g>
	<g>
		<rect x="155.1" y="300.1" class="st5" width="13.9" height="25.9"/>
	</g>
	<g>
		<rect x="131.5" y="300.1" class="st5" width="13.9" height="25.9"/>
	</g>
	<g>
		<rect x="107.9" y="300.1" class="st5" width="13.9" height="25.9"/>
	</g>
	<g>
		<rect x="84.3" y="300.1" class="st6" width="13.9" height="25.9"/>
	</g>
	<g>
		<rect x="60.7" y="300.1" class="st5" width="13.9" height="25.9"/>
	</g>
	<g>
		<rect x="37.1" y="300.1" class="st5" width="13.9" height="25.9"/>
	</g>
	<g>
		<rect x="249.5" y="265.1" class="st5" width="13.9" height="25.9"/>
	</g>
	<g>
		<rect x="225.9" y="265.1" class="st5" width="13.9" height="25.9"/>
	</g>
	<g>
		<rect x="202.3" y="265.1" class="st5" width="13.9" height="25.9"/>
	</g>
	<g>
		<rect x="178.7" y="265.1" class="st5" width="13.9" height="25.9"/>
	</g>
	<g>
		<rect x="155.1" y="265.1" class="st8" width="13.9" height="25.9"/>
	</g>
	<g>
		<rect x="131.5" y="265.1" class="st5" width="13.9" height="25.9"/>
	</g>
	<g>
		<rect x="107.9" y="265.1" class="st5" width="13.9" height="25.9"/>
	</g>
	<g>
		<rect x="84.3" y="265.1" class="st5" width="13.9" height="25.9"/>
	</g>
	<g>
		<rect x="60.7" y="265.1" class="st5" width="13.9" height="25.9"/>
	</g>
	<g>
		<rect x="37.1" y="265.1" class="st5" width="13.9" height="25.9"/>
	</g>
	<g>
		<rect x="249.5" y="230.1" class="st5" width="13.9" height="25.9"/>
	</g>
	<g>
		<rect x="225.9" y="230.1" class="st5" width="13.9" height="25.9"/>
	</g>
	<g>
		<rect x="202.3" y="230.1" class="st5" width="13.9" height="25.9"/>
	</g>
	<g>
		<rect x="178.7" y="230.1" class="st5" width="13.9" height="25.9"/>
	</g>
	<g>
		<rect x="155.1" y="230.1" class="st5" width="13.9" height="25.9"/>
	</g>
	<g>
		<rect x="131.5" y="230.1" class="st5" width="13.9" height="25.9"/>
	</g>
	<g>
		<rect x="107.9" y="230.1" class="st8" width="13.9" height="25.9"/>
	</g>
	<g>
		<rect x="84.3" y="230.1" class="st5" width="13.9" height="25.9"/>
	</g>
	<g>
		<rect x="60.7" y="230.1" class="st5" width="13.9" height="25.9"/>
	</g>
	<g>
		<rect x="37.1" y="230.1" class="st5" width="13.9" height="25.9"/>
	</g>
	<g>
		<rect x="249.5" y="195.1" class="st5" width="13.9" height="25.9"/>
	</g>
	<g>
		<rect x="225.9" y="195.1" class="st5" width="13.9" height="25.9"/>
	</g>
	<g>
		<rect x="202.3" y="195.1" class="st6" width="13.9" height="25.9"/>
	</g>
	<g>
		<rect x="178.7" y="195.1" class="st5" width="13.9" height="25.9"/>
	</g>
	<g>
		<rect x="155.1" y="195.1" class="st6" width="13.9" height="25.9"/>
	</g>
	<g>
		<rect x="131.5" y="195.1" class="st5" width="13.9" height="25.9"/>
	</g>
	<g>
		<rect x="107.9" y="195.1" class="st5" width="13.9" height="25.9"/>
	</g>
	<g>
		<rect x="84.3" y="195.1" class="st5" width="13.9" height="25.9"/>
	</g>
	<g>
		<rect x="60.7" y="195.1" class="st6" width="13.9" height="25.9"/>
	</g>
	<g>
		<rect x="37.1" y="195.1" class="st5" width="13.9" height="25.9"/>
	</g>
	<g>
		<rect x="249.5" y="160.1" class="st5" width="13.9" height="25.9"/>
	</g>
	<g>
		<rect x="225.9" y="160.1" class="st5" width="13.9" height="25.9"/>
	</g>
	<g>
		<rect x="202.3" y="160.1" class="st5" width="13.9" height="25.9"/>
	</g>
	<g>
		<rect x="178.7" y="160.1" class="st5" width="13.9" height="25.9"/>
	</g>
	<g>
		<rect x="155.1" y="160.1" class="st5" width="13.9" height="25.9"/>
	</g>
	<g>
		<rect x="131.5" y="160.1" class="st5" width="13.9" height="25.9"/>
	</g>
	<g>
		<rect x="107.9" y="160.1" class="st5" width="13.9" height="25.9"/>
	</g>
	<g>
		<rect x="84.3" y="160.1" class="st5" width="13.9" height="25.9"/>
	</g>
	<g>
		<rect x="60.7" y="160.1" class="st5" width="13.9" height="25.9"/>
	</g>
	<g>
		<rect x="37.1" y="160.1" class="st5" width="13.9" height="25.9"/>
	</g>
</g>
<g id="Shape_6_copy_25_xA0_Image_1_">
</g>
<g id="Shape_6_copy_27_xA0_Image_1_">
</g>
<g id="Shape_6_copy_28_xA0_Image_1_">
</g>
<g id="Shape_6_copy_26_xA0_Image_1_">
</g>
<g id="Shape_6_copy_10_xA0_Image_1_">
</g>
<g id="Shape_6_copy_16_xA0_Image_1_">
</g>
<g id="Shape_6_copy_17_xA0_Image_1_">
</g>
<g id="Shape_6_copy_11_xA0_Image_1_">
</g>
<g id="Shape_6_copy_9_xA0_Image_1_">
</g>
<g id="Shape_6_copy_23_xA0_Image_1_">
</g>
<g id="Shape_6_copy_24_xA0_Image_1_">
</g>
<g id="Shape_6_copy_29_xA0_Image_1_">
</g>
<g id="Shape_6_copy_21_xA0_Image_1_">
</g>
<g id="Shape_6_copy_14_xA0_Image_1_">
</g>
</svg>
