<?xml version="1.0" encoding="utf-8"?>
<!-- Generator: Adobe Illustrator 19.1.0, SVG Export Plug-In . SVG Version: 6.00 Build 0)  -->
<svg version="1.1" id="Court_House_1_" xmlns="http://www.w3.org/2000/svg" xmlns:xlink="http://www.w3.org/1999/xlink" x="0px"
	 y="0px" viewBox="0 0 269.5 186.4" style="enable-background:new 0 0 269.5 186.4;" xml:space="preserve">
<style type="text/css">
	.st0{fill:#EDD0A4;}
	.st1{fill:#CCB28D;}
	.st2{fill:#996247;}
	.st3{fill:#C78F64;}
	.st4{fill:#C44B45;}
	.st5{fill:#C89065;}
	.st6{fill:#4EB5ED;}
	.st7{fill:#FFFC00;}
</style>
<g id="Shape_13_2_">
	<g>
		<path class="st0" d="M132.8,0C90.1,0,48.4,33.4,48.4,33.4v102h174.7v-102C223.1,33.4,177.4,0,132.8,0z"/>
	</g>
</g>
<g id="Shape_13_copy_5_2_">
	<g>
		<rect x="30.1" y="54.3" class="st0" width="211.3" height="98.1"/>
	</g>
</g>
<g id="Shape_14_copy_2_2_">
	<g>
		<path class="st1" d="M241,77.4H30.3c-2.9,0-5.2,1.1-5.2,2.4v0.2c0,1.3,2.3,2.4,5.2,2.4H241c2.9,0,5.2-1.1,5.2-2.4v-0.2
			C246.2,78.5,243.8,77.4,241,77.4z"/>
	</g>
</g>
<g id="Shape_14_copy_3_2_">
	<g>
		<path class="st1" d="M241,96.7H30.3c-2.9,0-5.2,1.1-5.2,2.4v0.2c0,1.3,2.3,2.4,5.2,2.4H241c2.9,0,5.2-1.1,5.2-2.4v-0.2
			C246.2,97.8,243.8,96.7,241,96.7z"/>
	</g>
</g>
<g id="Shape_14_copy_4_2_">
	<g>
		<path class="st1" d="M241,116.4H30.3c-2.9,0-5.2,1.1-5.2,2.4v0.2c0,1.3,2.3,2.4,5.2,2.4H241c2.9,0,5.2-1.1,5.2-2.4v-0.2
			C246.2,117.4,243.8,116.4,241,116.4z"/>
	</g>
</g>
<g id="Shape_13_copy_4_2_">
	<g>
		<rect x="53" y="66.7" class="st2" width="165.5" height="85.7"/>
	</g>
</g>
<g id="Shape_13_copy_3_2_">
	<g>
		<path class="st3" d="M244.3,131.5H25.9c-2,0-3.7,7-3.7,15.6v13.3c0,8.6,1.6,15.6,3.7,15.6h218.4c2,0,3.7-7,3.7-15.6v-13.3
			C247.9,138.5,246.3,131.5,244.3,131.5z"/>
	</g>
</g>
<g id="Shape_13_copy_2_2_">
	<g>
		<path class="st1" d="M250.5,163.5H17c-2.2,0-3.9,2-3.9,4.4v3.7c0,2.4,1.7,4.4,3.9,4.4h233.6c2.2,0,3.9-2,3.9-4.4v-3.7
			C254.5,165.5,252.7,163.5,250.5,163.5z"/>
	</g>
</g>
<g id="Shape_13_copy_2_">
	<g>
		<path class="st0" d="M265.1,174H4.4C2,174,0,176,0,178.4v3.7c0,2.4,2,4.4,4.4,4.4h260.8c2.4,0,4.4-2,4.4-4.4v-3.7
			C269.5,176,267.5,174,265.1,174z"/>
	</g>
</g>
<g id="Shape_14_2_">
	<g>
		<path class="st1" d="M223.9,33.4H46.9c-2.4,0-4.4,2-4.4,4.4v0.4c0,2.4,2,4.4,4.4,4.4h177.1c2.4,0,4.4-2,4.4-4.4v-0.4
			C228.3,35.3,226.3,33.4,223.9,33.4z"/>
	</g>
</g>
<g id="Shape_14_copy_2_">
	<g>
		<path class="st1" d="M240.5,53.7H31.8c-2.8,0-5.1,2.7-5.1,6.1v0.6c0,3.4,2.3,6.1,5.1,6.1h208.6c2.8,0,5.1-2.7,5.1-6.1v-0.6
			C245.6,56.5,243.3,53.7,240.5,53.7z"/>
	</g>
</g>
<g id="Door_2_">
	<g>
		<path class="st1" d="M135.7,99.5c-22.3,0.6-25.2,23.6-25.2,23.6v43.1h50.5v-43.1C160.9,123.2,157.5,98.9,135.7,99.5z"/>
	</g>
</g>
<g id="Door_copy_2_">
	<g>
		<path class="st4" d="M135.5,102.6c-20.3,0.6-23,21.5-23,21.5v39.2h45.9v-39.2C158.5,124.1,155.4,102,135.5,102.6z"/>
	</g>
</g>
<g id="Column_1_">
	<g id="Shape_15_copy_3">
		<g>
			<path class="st0" d="M208,153.6h-21.7c-1.3,0-2.3,1.3-2.3,3v4.3c0,1.6,1,3,2.3,3H208c1.3,0,2.3-1.3,2.3-3v-4.3
				C210.3,155,209.2,153.6,208,153.6z"/>
		</g>
	</g>
	<g id="Shape_16">
		<g>
			<polygon class="st0" points="202,70.9 192.8,70.9 188.5,160.7 206.3,160.7 			"/>
		</g>
	</g>
	<g id="Shape_15">
		<g>
			<path class="st1" d="M204.3,73.6h-13.7c-0.8,0-1.4,0.5-1.4,1.1v1.6c0,0.6,0.6,1.1,1.4,1.1h13.7c0.8,0,1.4-0.5,1.4-1.1v-1.6
				C205.7,74.1,205.1,73.6,204.3,73.6z"/>
		</g>
	</g>
	<g id="Shape_15_copy_2">
		<g>
			<path class="st1" d="M208.8,152.5h-23.3c-1.4,0-2.5,0.5-2.5,1.1v1.6c0,0.6,1.1,1.1,2.5,1.1h23.3c1.4,0,2.5-0.5,2.5-1.1v-1.6
				C211.2,153,210.1,152.5,208.8,152.5z"/>
		</g>
	</g>
	<g id="Shape_15_copy">
		<g>
			<path class="st0" d="M207.8,66.7h-20.6c-1.2,0-2.2,1-2.2,2.2v3.2c0,1.2,1,2.2,2.2,2.2h20.6c1.2,0,2.2-1,2.2-2.2v-3.2
				C210,67.7,209,66.7,207.8,66.7z"/>
		</g>
	</g>
</g>
<g id="Column_copy_1_">
	<g id="Shape_15_copy_3_4_">
		<g>
			<path class="st0" d="M82.8,153.6H61.1c-1.3,0-2.3,1.3-2.3,3v4.3c0,1.6,1,3,2.3,3h21.7c1.3,0,2.3-1.3,2.3-3v-4.3
				C85.1,155,84.1,153.6,82.8,153.6z"/>
		</g>
	</g>
	<g id="Shape_16_4_">
		<g>
			<polygon class="st0" points="76.8,70.9 67.7,70.9 63.3,160.7 81.2,160.7 			"/>
		</g>
	</g>
	<g id="Shape_15_4_">
		<g>
			<path class="st1" d="M79.1,73.6H65.4c-0.8,0-1.4,0.5-1.4,1.1v1.6c0,0.6,0.6,1.1,1.4,1.1h13.7c0.8,0,1.4-0.5,1.4-1.1v-1.6
				C80.6,74.1,79.9,73.6,79.1,73.6z"/>
		</g>
	</g>
	<g id="Shape_15_copy_2_4_">
		<g>
			<path class="st1" d="M83.6,152.5H60.4c-1.4,0-2.5,0.5-2.5,1.1v1.6c0,0.6,1.1,1.1,2.5,1.1h23.3c1.4,0,2.5-0.5,2.5-1.1v-1.6
				C86.1,153,85,152.5,83.6,152.5z"/>
		</g>
	</g>
	<g id="Shape_15_copy_4_">
		<g>
			<path class="st0" d="M82.6,66.7H62c-1.2,0-2.2,1-2.2,2.2v3.2c0,1.2,1,2.2,2.2,2.2h20.6c1.2,0,2.2-1,2.2-2.2v-3.2
				C84.8,67.7,83.8,66.7,82.6,66.7z"/>
		</g>
	</g>
</g>
<g id="Courthouse_Signage_1_">
	<g id="Circle">
		<g>
			<circle class="st5" cx="135.4" cy="67.1" r="19"/>
		</g>
	</g>
	<g id="Circle_copy">
		<g>
			<circle class="st6" cx="135.5" cy="67.3" r="16.5"/>
		</g>
	</g>
	<g id="Star">
		<g>
			<polygon class="st7" points="144.6,64.2 138.4,63 135.4,57.6 132.4,63 126.2,64.2 130.5,68.8 129.7,75 135.4,72.3 141.1,75 
				140.3,68.8 			"/>
		</g>
	</g>
</g>
</svg>
