<?xml version="1.0" encoding="utf-8"?>
<!-- Generator: Adobe Illustrator 19.1.0, SVG Export Plug-In . SVG Version: 6.00 Build 0)  -->
<svg version="1.1" id="Layer_2" xmlns="http://www.w3.org/2000/svg" xmlns:xlink="http://www.w3.org/1999/xlink" x="0px" y="0px"
	 viewBox="0 0 388.4 240" style="enable-background:new 0 0 388.4 240;" xml:space="preserve">
<style type="text/css">
	.st0{fill:#1A425E;}
	.st1{fill:#548287;}
	.st2{fill:#CFE5E7;}
	.st3{fill:#FFFFFF;}
	.st4{fill:none;}
</style>
<g>
	<rect x="15.5" y="106.7" class="st0" width="357.3" height="125.7"/>
	<polygon class="st1" points="367.6,76.6 367.6,26.9 323.7,26.9 323.7,76.6 314.5,76.6 314.5,58 276,58 276,76.6 271.6,76.6 
		271.6,47.2 225.9,47.2 225.9,76.6 218.8,76.6 218.8,15.9 171.2,34.7 171.2,76.6 166.3,76.6 88.3,0 6.6,76.6 6.6,102.6 381.8,102.6 
		381.8,76.6 	"/>
	<path class="st2" d="M388,82.8H0.4c-0.2,0-0.4-0.2-0.4-0.4l0-6.8c0-0.2,0.2-0.4,0.4-0.4H388c0.2,0,0.4,0.2,0.4,0.4v6.8
		C388.4,82.7,388.2,82.8,388,82.8z"/>
	<path class="st2" d="M381,106.7H7.4c-0.4,0-0.8-0.3-0.8-0.8v-6.8h375.2v6.8C381.8,106.3,381.4,106.7,381,106.7z"/>
	<path class="st3" d="M109.1,56H65.4c-0.5,0-0.9-0.4-0.9-0.9V38.3c0-0.5,0.4-0.9,0.9-0.9h43.6c0.5,0,0.9,0.4,0.9,0.9V55
		C110,55.5,109.6,56,109.1,56z"/>
	<g>
		<path class="st4" d="M71.2,127H48.9c-2.8,0-5.1,2.2-5.1,4.8v92.5h27.4V127z"/>
		<path class="st4" d="M98.6,127H76.3v97.3h27.4v-92.5C103.6,129.1,101.3,127,98.6,127z"/>
		<path class="st3" d="M102.6,117.3H44.8c-6.1,0-11.2,4.8-11.2,10.6v106h80.1v-106C113.8,122.1,108.7,117.3,102.6,117.3z
			 M43.8,131.8c0-2.7,2.3-4.8,5.1-4.8h22.3v97.3H43.8V131.8z M103.6,224.3H76.3V127h22.3c2.8,0,5.1,2.2,5.1,4.8V224.3z"/>
	</g>
	<path class="st1" d="M357.8,194.9H127.3c-1.6,0-2.9-1.3-2.9-2.9v-52.5c0-1.6,1.3-2.9,2.9-2.9h230.4c1.6,0,2.9,1.3,2.9,2.9V192
		C360.7,193.6,359.4,194.9,357.8,194.9z"/>
	<path class="st1" d="M381.4,240H6.6v-7.6h374.8c0.2,0,0.4,0.2,0.4,0.4v6.8C381.8,239.8,381.6,240,381.4,240z"/>
	<g>
		<g>
			<path class="st3" d="M348.2,184.2h-36.9c-1,0-1.8-0.8-1.8-1.8v-32.9c0-1,0.8-1.8,1.8-1.8h36.9c1,0,1.8,0.8,1.8,1.8v32.9
				C350.1,183.4,349.2,184.2,348.2,184.2z"/>
		</g>
		<g>
			<path class="st3" d="M304.6,184.2h-36.9c-1,0-1.8-0.8-1.8-1.8v-32.9c0-1,0.8-1.8,1.8-1.8h36.9c1,0,1.8,0.8,1.8,1.8v32.9
				C306.4,183.4,305.6,184.2,304.6,184.2z"/>
		</g>
		<g>
			<path class="st3" d="M261,184.2h-36.9c-1,0-1.8-0.8-1.8-1.8v-32.9c0-1,0.8-1.8,1.8-1.8H261c1,0,1.8,0.8,1.8,1.8v32.9
				C262.8,183.4,262,184.2,261,184.2z"/>
		</g>
		<g>
			<path class="st3" d="M217.4,184.2h-36.9c-1,0-1.8-0.8-1.8-1.8v-32.9c0-1,0.8-1.8,1.8-1.8h36.9c1,0,1.8,0.8,1.8,1.8v32.9
				C219.2,183.4,218.4,184.2,217.4,184.2z"/>
		</g>
		<g>
			<path class="st3" d="M173.8,184.2h-36.9c-1,0-1.8-0.8-1.8-1.8v-32.9c0-1,0.8-1.8,1.8-1.8h36.9c1,0,1.8,0.8,1.8,1.8v32.9
				C175.6,183.4,174.8,184.2,173.8,184.2z"/>
		</g>
	</g>
</g>
</svg>
